4 Wrangling data in the tidyverse – Data Science for Public Good
…
A common data wrangling task is to join together related data frames. This situation can come about by the desire split up a dataset into multiple datasets to keep them clean and tidy or the raw data may already be separated into different data frames. Joins make it possible to work with multiple datasets at a time.

For instance, in collecting field data, you might have a spreadsheet that notes the dates you conducted the interviews and a separate spreadsheet for the data collected. The two data frames can be reconnected as long as they share a column that identifies each row. In interviews this is the key_ID column.

# Split the data into to data frames
interview_dates <- interviews |>
  select(key_ID, interview_date)

interviews <- interviews |>
  select(!interview_date)

# Data frame with dates
interview_dates

# A tibble: 131 × 2
   key_ID interview_date     
    <dbl> <dttm>             
 1      1 2016-11-17 00:00:00
 2      2 2016-11-17 00:00:00
 3      3 2016-11-17 00:00:00
 4      4 2016-11-17 00:00:00
 5      5 2016-11-17 00:00:00
 6      6 2016-11-17 00:00:00
 7      7 2016-11-17 00:00:00
 8      8 2016-11-16 00:00:00
 9      9 2016-11-16 00:00:00
10     10 2016-12-16 00:00:00
# ℹ 121 more rows

# Data frame with the rest of the data
interviews

# A tibble: 131 × 13
   key_ID village  no_membrs years_liv respondent_wall_type rooms memb_assoc
    <dbl> <chr>        <dbl>     <dbl> <chr>                <dbl> <chr>     
 1      1 God              3         4 muddaub                  1 <NA>      
 2      2 God              7         9 muddaub                  1 yes       
 3      3 God             10        15 burntbricks              1 <NA>      
 4      4 God              7         6 burntbricks              1 <NA>      
 5      5 God              7        40 burntbricks              1 <NA>      
 6      6 God              3         3 muddaub                  1 <NA>      
 7      7 God              6        38 muddaub                  1 no        
 8      8 Chirodzo        12        70 burntbricks              3 yes       
 9      9 Chirodzo         8         6 burntbricks              1 no        
10     10 Chirodzo        12        23 burntbricks              5 no        
# ℹ 121 more rows
# ℹ 6 more variables: affect_conflicts <chr>, liv_count <dbl>,
#   items_owned <chr>, no_meals <dbl>, months_lack_food <chr>, instanceID <chr>
…
right_join()
Keep all observations in the second (right) data frame.

full_join()
Keep all observations from both data frames.

inner_join()
Only keep observations that are in both data frames, dropping rows that do not have a match.

Generally, it is best to default to left_join(). In this case, both data frames have all of the key_IDs, so it does not matter which one you use.

left_join(interview_dates, interviews, by = "key_ID")

# A tibble: 131 × 14
   key_ID interview_date      village  no_membrs years_liv respondent_wall_type
    <dbl> <dttm>              <chr>        <dbl>     <dbl> <chr>               
 1      1 2016-11-17 00:00:00 God              3         4 muddaub             
 2      2 2016-11-17 00:00:00 God              7         9 muddaub             
 3      3 2016-11-17 00:00:00 God             10        15 burntbricks         
 4      4 2016-11-17 00:00:00 God              7         6 burntbricks         
 5      5 2016-11-17 00:00:00 God              7        40 burntbricks         
 6      6 2016-11-17 00:00:00 God              3         3 muddaub             
 7      7 2016-11-17 00:00:00 God              6        38 muddaub             
 8      8 2016-11-16 00:00:00 Chirodzo        12        70 burntbricks         
 9      9 2016-11-16 00:00:00 Chirodzo         8         6 burntbricks         
10     10 2016-12-16 00:00:00 Chirodzo        12        23 burntbricks         
# ℹ 121 more rows
# ℹ 8 more variables: rooms <dbl>, memb_assoc <chr>, affect_conflicts <chr>,
#   liv_count <dbl>, items_owned <chr>, no_meals <dbl>, months_lack_food <chr>,
#   instanceID <chr>
…
lack_food <- interviews |> 
1  select(key_ID, village, months_lack_food) |>
2  separate_longer_delim(months_lack_food, delim = ";")
lack_food

1

Subset the data frame to only the necessary columns.

2

Make a new row for each semi-colon in the months_lack_food column.

# A tibble: 338 × 3
   key_ID village months_lack_food
    <dbl> <chr>   <chr>           
 1      1 God     Jan             
 2      2 God     Jan             
 3      2 God     Sept            
 4      2 God     Oct             
 5      2 God     Nov             
 6      2 God     Dec             
 7      3 God     Jan             
 8      3 God     Feb             
 9      3 God     Mar             
10      3 God     Oct             
# ℹ 328 more rows

Now the data is in a format that is easier to analyze. It is possible to see the number of months each household lacked food, the months when food is most scarce, or any differences between villages.

# Months lacking food per household
lack_food |>
  count(key_ID, name = "n_months")

# A tibble: 131 × 2
   key_ID n_months
    <dbl>    <int>
 1      1        1
 2      2        5
 3      3        6
 4      4        4
 5      5        4
 6      6        3
 7      7        1
 8      8        1
 9      9        2
10     10        4
# ℹ 121 more rows
…
# Months lacking food in households per village
lack_food  |> 
  count(village, months_lack_food, sort = TRUE)

# A tibble: 33 × 3
   village  months_lack_food     n
   <chr>    <chr>            <int>
 1 God      Nov                 35
 2 God      Oct                 27
 3 Chirodzo Nov                 18
 4 Ruaca    Nov                 18
 5 Ruaca    Oct                 18
 6 Ruaca    Jan                 17
 7 Ruaca    none                17
 8 God      Sept                16
 9 Ruaca    Dec                 15
10 Chirodzo Dec                 14
# ℹ 23 more rows
…
